{
  "name": "ObjectiveImage",
  "fields": [
    {
      "fieldName": "fileName",
      "fieldType": "String"
    }
  ],
  "relationships": [
    {
      "relationshipType": "many-to-one",
      "otherEntityName": "objective",
      "otherEntityRelationshipName": "image",
      "relationshipName": "objective",
      "otherEntityField": "id"
    }
  ],
  "changelogDate": "20200716121238",
  "entityTableName": "objective_image",
  "dto": "mapstruct",
  "pagination": "no",
  "service": "serviceClass",
  "jpaMetamodelFiltering": false,
  "fluentMethods": true,
  "readOnly": false,
  "embedded": false,
  "clientRootFolder": "missions",
  "applications": "*",
  "microserviceName": "missions"
}
